<svg version="1.1" xmlns="http://www.w3.org/2000/svg" fill="#ffffff" width="16" height="16" viewBox="0 0 768 768">
<path d="M384 640.5c141 0 256.5-115.5 256.5-256.5s-115.5-256.5-256.5-256.5-256.5 115.5-256.5 256.5 115.5 256.5 256.5 256.5zM384 64.5c177 0 319.5 142.5 319.5 319.5s-142.5 319.5-319.5 319.5-319.5-142.5-319.5-319.5 142.5-319.5 319.5-319.5zM352.5 223.5h63v192h-63v-192zM352.5 480h63v64.5h-63v-64.5z"></path>
</svg>
