<svg version="1.1" xmlns="http://www.w3.org/2000/svg" fill="#228b22" width="16" height="16" viewBox="0 0 24 24">
<path d="M12.984 21h-1.969v-14.156l-3.609 3.563-1.406-1.406 6-6 6 6-1.406 1.406-3.609-3.563v14.156z"></path>
</svg>
