<svg version="1.1" xmlns="http://www.w3.org/2000/svg" fill="#228b22" width="16" height="16" viewBox="0 0 768 768">
<path d="M640.5 352.5v63h-390l178.5 180-45 45-256.5-256.5 256.5-256.5 45 45-178.5 180h390z"></path>
</svg>
